LAB8/lab8_tmp.vcd
$date
  Mon Jun 15 19:21:55 2026
$end
$version
  GHDL v0
$end
$timescale
  1 fs
$end
$scope module standard $end
$upscope $end
$scope module std_logic_1164 $end
$upscope $end
$scope module numeric_std $end
$upscope $end
$scope module processador_tb $end
$var reg 1 ! finished $end
$var reg 1 " clk $end
$var reg 1 # rst $end
$var reg 2 $ estado_o[1:0] $end
$var reg 7 % pc_o[6:0] $end
$var reg 15 & instr_o[14:0] $end
$var reg 16 ' ula_out_o[15:0] $end
$var reg 1 ( exception_o $end
$scope module uut $end
$var reg 1 ) clk $end
$var reg 1 * rst $end
$var reg 2 + estado_o[1:0] $end
$var reg 7 , pc_o[6:0] $end
$var reg 15 - instr_o[14:0] $end
$var reg 16 . ula_out_o[15:0] $end
$var reg 1 / exception_o $end
$var reg 7 0 pc_out_s[6:0] $end
$var reg 7 1 pc_next_s[6:0] $end
$var reg 15 2 rom_out_s[14:0] $end
$var reg 15 3 ir_in_s[14:0] $end
$var reg 15 4 ir_out_s[14:0] $end
$var reg 1 5 wr_en_pc_s $end
$var reg 1 6 wr_en_ir_s $end
$var reg 1 7 flush_s $end
$var reg 1 8 wr_en_reg_s $end
$var reg 1 9 wr_en_ram_s $end
$var reg 1 : wr_en_flag_s $end
$var reg 3 ; reg_wr_s[2:0] $end
$var reg 3 < reg_r1_s[2:0] $end
$var reg 3 = reg_r2_s[2:0] $end
$var reg 1 > sel_b_s $end
$var reg 2 ? sel_wr_s[1:0] $end
$var reg 2 @ ula_op_s[1:0] $end
$var reg 1 A djnz_dec_s $end
$var reg 2 B estado_s[1:0] $end
$var reg 16 C banco_out1_s[15:0] $end
$var reg 16 D banco_out2_s[15:0] $end
$var reg 16 E ula_out_s[15:0] $end
$var reg 16 F mux_b_s[15:0] $end
$var reg 16 G data_wr_s[15:0] $end
$var reg 16 H cte_ext_s[15:0] $end
$var reg 16 I djnz_cte_s[15:0] $end
$var reg 16 J ram_out_s[15:0] $end
$var reg 1 K ula_ble_s $end
$var reg 1 L ula_bcc_s $end
$var reg 1 M ula_z_s $end
$var reg 1 N flag_ble_s $end
$var reg 1 O flag_bcc_s $end
$var reg 1 P flag_z_s $end
$scope module inst_pc $end
$var reg 1 Q clk $end
$var reg 1 R rst $end
$var reg 1 S wr_en $end
$var reg 7 T data_in[6:0] $end
$var reg 7 U data_out[6:0] $end
$var reg 7 V pc_data[6:0] $end
$upscope $end
$scope module inst_rom $end
$var reg 1 W clk $end
$var reg 7 X endereco[6:0] $end
$var reg 15 Y dado[14:0] $end
$upscope $end
$scope module inst_ir $end
$var reg 1 Z clk $end
$var reg 1 [ rst $end
$var reg 1 \ wr_en $end
$var reg 15 ] data_in[14:0] $end
$var reg 15 ^ data_out[14:0] $end
$var reg 15 _ ir_data[14:0] $end
$upscope $end
$scope module inst_uc8 $end
$var reg 1 ` clk $end
$var reg 1 a rst $end
$var reg 15 b instr_i[14:0] $end
$var reg 7 c pc_i[6:0] $end
$var reg 1 d flag_ble_i $end
$var reg 1 e flag_bcc_i $end
$var reg 1 f flag_z_i $end
$var reg 1 g ula_zero_i $end
$var reg 7 h pc_next_o[6:0] $end
$var reg 1 i wr_en_pc_o $end
$var reg 1 j wr_en_ir_o $end
$var reg 1 k flush_o $end
$var reg 1 l wr_en_reg_o $end
$var reg 1 m wr_en_ram_o $end
$var reg 1 n wr_en_flag_o $end
$var reg 3 o reg_wr_o[2:0] $end
$var reg 3 p reg_r1_o[2:0] $end
$var reg 3 q reg_r2_o[2:0] $end
$var reg 1 r sel_b_o $end
$var reg 2 s sel_wr_o[1:0] $end
$var reg 2 t ula_op_o[1:0] $end
$var reg 1 u djnz_dec_o $end
$var reg 2 v estado_o[1:0] $end
$var reg 1 w exception_o $end
$var reg 2 x estado_s[1:0] $end
$var reg 4 y opcode_s[3:0] $end
$var reg 3 z rd_s[2:0] $end
$var reg 3 { rs1_s[2:0] $end
$var reg 3 | rs2_s[2:0] $end
$var reg 7 } offset_s[6:0] $end
$var reg 7 !" addr_abs_s[6:0] $end
$var reg 1 "" is_ld_s $end
$var reg 1 #" is_add_s $end
$var reg 1 $" is_subi_s $end
$var reg 1 %" is_mov_s $end
$var reg 1 &" is_jmp_s $end
$var reg 1 '" is_ble_s $end
$var reg 1 (" is_bcc_s $end
$var reg 1 )" is_sw_s $end
$var reg 1 *" is_lw_s $end
$var reg 1 +" is_djnz_s $end
$var reg 1 ," branch_taken_s $end
$var reg 8 -" pc_8b_s[7:0] $end
$var reg 1 ." exception_s $end
$scope module inst_maq $end
$var reg 1 /" clk $end
$var reg 1 0" rst $end
$var reg 2 1" estado[1:0] $end
$var reg 2 2" estado_s[1:0] $end
$upscope $end
$upscope $end
$scope module inst_banco $end
$var reg 1 3" clk $end
$var reg 1 4" rst $end
$var reg 1 5" wr_en $end
$var reg 3 6" reg_r1[2:0] $end
$var reg 3 7" reg_r2[2:0] $end
$var reg 3 8" reg_wr[2:0] $end
$var reg 16 9" data_wr[15:0] $end
$var reg 16 :" data_r1[15:0] $end
$var reg 16 ;" data_r2[15:0] $end
$var reg 16 <" q_r0[15:0] $end
$var reg 16 =" q_r1[15:0] $end
$var reg 16 >" q_r2[15:0] $end
$var reg 16 ?" q_r3[15:0] $end
$var reg 16 @" q_r4[15:0] $end
$var reg 16 A" q_r5[15:0] $end
$var reg 16 B" q_r6[15:0] $end
$var reg 16 C" q_r7[15:0] $end
$var reg 1 D" wr_r0 $end
$var reg 1 E" wr_r1 $end
$var reg 1 F" wr_r2 $end
$var reg 1 G" wr_r3 $end
$var reg 1 H" wr_r4 $end
$var reg 1 I" wr_r5 $end
$var reg 1 J" wr_r6 $end
$var reg 1 K" wr_r7 $end
$scope module r0 $end
$var reg 1 L" clk $end
$var reg 1 M" rst $end
$var reg 1 N" wr_en $end
$var reg 16 O" data_in[15:0] $end
$var reg 16 P" data_out[15:0] $end
$var reg 16 Q" registro[15:0] $end
$upscope $end
$scope module r1 $end
$var reg 1 R" clk $end
$var reg 1 S" rst $end
$var reg 1 T" wr_en $end
$var reg 16 U" data_in[15:0] $end
$var reg 16 V" data_out[15:0] $end
$var reg 16 W" registro[15:0] $end
$upscope $end
$scope module r2 $end
$var reg 1 X" clk $end
$var reg 1 Y" rst $end
$var reg 1 Z" wr_en $end
$var reg 16 [" data_in[15:0] $end
$var reg 16 \" data_out[15:0] $end
$var reg 16 ]" registro[15:0] $end
$upscope $end
$scope module r3 $end
$var reg 1 ^" clk $end
$var reg 1 _" rst $end
$var reg 1 `" wr_en $end
$var reg 16 a" data_in[15:0] $end
$var reg 16 b" data_out[15:0] $end
$var reg 16 c" registro[15:0] $end
$upscope $end
$scope module r4 $end
$var reg 1 d" clk $end
$var reg 1 e" rst $end
$var reg 1 f" wr_en $end
$var reg 16 g" data_in[15:0] $end
$var reg 16 h" data_out[15:0] $end
$var reg 16 i" registro[15:0] $end
$upscope $end
$scope module r5 $end
$var reg 1 j" clk $end
$var reg 1 k" rst $end
$var reg 1 l" wr_en $end
$var reg 16 m" data_in[15:0] $end
$var reg 16 n" data_out[15:0] $end
$var reg 16 o" registro[15:0] $end
$upscope $end
$scope module r6 $end
$var reg 1 p" clk $end
$var reg 1 q" rst $end
$var reg 1 r" wr_en $end
$var reg 16 s" data_in[15:0] $end
$var reg 16 t" data_out[15:0] $end
$var reg 16 u" registro[15:0] $end
$upscope $end
$scope module r7 $end
$var reg 1 v" clk $end
$var reg 1 w" rst $end
$var reg 1 x" wr_en $end
$var reg 16 y" data_in[15:0] $end
$var reg 16 z" data_out[15:0] $end
$var reg 16 {" registro[15:0] $end
$upscope $end
$upscope $end
$scope module inst_ula $end
$var reg 16 |" x[15:0] $end
$var reg 16 }" y[15:0] $end
$var reg 2 !# op[1:0] $end
$var reg 16 "# output[15:0] $end
$var reg 1 ## c $end
$var reg 1 $# z $end
$var reg 1 %# n $end
$var reg 1 &# v $end
$var reg 1 '# ble $end
$var reg 1 (# bcc $end
$var reg 17 )# op_17b[16:0] $end
$var reg 16 *# resultado[15:0] $end
$var reg 1 +# c_int $end
$var reg 1 ,# z_int $end
$var reg 1 -# n_int $end
$var reg 1 .# v_int $end
$upscope $end
$scope module inst_ram $end
$var reg 1 /# clk $end
$var reg 7 0# endereco[6:0] $end
$var reg 1 1# wr_en $end
$var reg 16 2# dado_in[15:0] $end
$var reg 16 3# dado_out[15:0] $end
$comment conteudo_ram is not handled $end
$upscope $end
$scope module inst_flag_ble $end
$var reg 1 4# clk $end
$var reg 1 5# rst $end
$var reg 1 6# wr_en $end
$var reg 1 7# data_in $end
$var reg 1 8# data_out $end
$var reg 1 9# reg_s $end
$upscope $end
$scope module inst_flag_bcc $end
$var reg 1 :# clk $end
$var reg 1 ;# rst $end
$var reg 1 <# wr_en $end
$var reg 1 =# data_in $end
$var reg 1 ># data_out $end
$var reg 1 ?# reg_s $end
$upscope $end
$scope module inst_flag_z $end
$var reg 1 @# clk $end
$var reg 1 A# rst $end
$var reg 1 B# wr_en $end
$var reg 1 C# data_in $end
$var reg 1 D# data_out $end
$var reg 1 E# reg_s $end
$upscope $end
$upscope $end
$upscope $end
$enddefinitions $end
#0
0!
0"
1#
b00 $
b0000000 %
b000000000000000 &
b0000000000000000 '
0(
0)
1*
b00 +
b0000000 ,
b000000000000000 -
b0000000000000000 .
0/
b0000000 0
b0000000 1
bUUUUUUUUUUUUUUU 2
bUUUUUUUUUUUUUUU 3
b000000000000000 4
05
16
07
08
09
0:
b000 ;
b000 <
b000 =
0>
b00 ?
b00 @
0A
b00 B
b0000000000000000 C
b0000000000000000 D
b0000000000000000 E
b0000000000000000 F
b0000000000000000 G
b0000000000000000 H
b0000000000000001 I
bUUUUUUUUUUUUUUUU J
1K
1L
1M
0N
0O
0P
0Q
1R
0S
b0000000 T
b0000000 U
b0000000 V
0W
b0000000 X
bUUUUUUUUUUUUUUU Y
0Z
1[
1\
bUUUUUUUUUUUUUUU ]
b000000000000000 ^
b000000000000000 _
0`
1a
b000000000000000 b
b0000000 c
0d
0e
0f
1g
b0000000 h
0i
1j
0k
0l
0m
0n
b000 o
b000 p
b000 q
0r
b00 s
b00 t
0u
b00 v
0w
b00 x
b0000 y
b000 z
b000 {
b000 |
b0000000 }
b0000000 !"
0""
0#"
0$"
0%"
0&"
0'"
0("
0)"
0*"
0+"
0,"
b00000001 -"
0."
0/"
10"
b00 1"
b00 2"
03"
14"
05"
b000 6"
b000 7"
b000 8"
b0000000000000000 9"
b0000000000000000 :"
b0000000000000000 ;"
b0000000000000000 <"
b0000000000000000 ="
b0000000000000000 >"
b0000000000000000 ?"
b0000000000000000 @"
b0000000000000000 A"
b0000000000000000 B"
b0000000000000000 C"
0D"
0E"
0F"
0G"
0H"
0I"
0J"
0K"
0L"
1M"
0N"
b0000000000000000 O"
b0000000000000000 P"
b0000000000000000 Q"
0R"
1S"
0T"
b0000000000000000 U"
b0000000000000000 V"
b0000000000000000 W"
0X"
1Y"
0Z"
b0000000000000000 ["
b0000000000000000 \"
b0000000000000000 ]"
0^"
1_"
0`"
b0000000000000000 a"
b0000000000000000 b"
b0000000000000000 c"
0d"
1e"
0f"
b0000000000000000 g"
b0000000000000000 h"
b0000000000000000 i"
0j"
1k"
0l"
b0000000000000000 m"
b0000000000000000 n"
b0000000000000000 o"
0p"
1q"
0r"
b0000000000000000 s"
b0000000000000000 t"
b0000000000000000 u"
0v"
1w"
0x"
b0000000000000000 y"
b0000000000000000 z"
b0000000000000000 {"
b0000000000000000 |"
b0000000000000000 }"
b00 !#
b0000000000000000 "#
0##
1$#
0%#
0&#
1'#
1(#
b00000000000000000 )#
b0000000000000000 *#
0+#
1,#
0-#
0.#
0/#
b0000000 0#
01#
b0000000000000000 2#
bUUUUUUUUUUUUUUUU 3#
04#
15#
06#
17#
08#
09#
0:#
1;#
0<#
1=#
0>#
0?#
0@#
1A#
0B#
1C#
0D#
0E#
#50000000
1"
1)
b000100000000001 2
b000100000000001 3
1Q
1W
b000100000000001 Y
1Z
b000100000000001 ]
1`
1/"
13"
1L"
1R"
1X"
1^"
1d"
1j"
1p"
1v"
1/#
14#
1:#
1@#
#100000000
0"
0)
0Q
0W
0Z
0`
0/"
03"
0L"
0R"
0X"
0^"
0d"
0j"
0p"
0v"
0/#
04#
0:#
0@#
#150000000
1"
1)
1Q
1W
1Z
1`
1/"
13"
1L"
1R"
1X"
1^"
1d"
1j"
1p"
1v"
1/#
14#
1:#
1@#
#200000000
0"
0#
0)
0*
0Q
0R
0W
0Z
0[
0`
0a
0/"
00"
03"
04"
0L"
0M"
0R"
0S"
0X"
0Y"
0^"
0_"
0d"
0e"
0j"
0k"
0p"
0q"
0v"
0w"
0/#
04#
05#
0:#
0;#
0@#
0A#
#250000000
1"
b01 $
b000100000000001 &
1)
b01 +
b000100000000001 -
b0000001 1
b000100000000001 4
15
06
b01 ?
b01 B
b0000000000000001 G
b0000000000000001 H
1Q
1S
b0000001 T
1W
1Z
0\
b000100000000001 ^
b000100000000001 _
1`
b000100000000001 b
b0000001 h
1i
0j
b01 s
b01 v
b01 x
b0001 y
b0000001 }
b0000001 !"
1""
1/"
b01 1"
b01 2"
13"
b0000000000000001 9"
1L"
b0000000000000001 O"
1R"
b0000000000000001 U"
1X"
b0000000000000001 ["
1^"
b0000000000000001 a"
1d"
b0000000000000001 g"
1j"
b0000000000000001 m"
1p"
b0000000000000001 s"
1v"
b0000000000000001 y"
1/#
14#
1:#
1@#
#300000000
0"
0)
0Q
0W
0Z
0`
0/"
03"
0L"
0R"
0X"
0^"
0d"
0j"
0p"
0v"
0/#
04#
0:#
0@#
#350000000
1"
b10 $
b0000001 %
1)
b10 +
b0000001 ,
b0000001 0
05
18
b10 B
1Q
0S
b0000001 U
b0000001 V
1W
b0000001 X
1Z
1`
b0000001 c
0i
1l
b10 v
b10 x
b00000010 -"
1/"
b10 1"
b10 2"
13"
15"
1D"
1L"
1N"
1R"
1X"
1^"
1d"
1j"
1p"
1v"
1/#
14#
1:#
1@#
#400000000
0"
0)
0Q
0W
0Z
0`
0/"
03"
0L"
0R"
0X"
0^"
0d"
0j"
0p"
0v"
0/#
04#
0:#
0@#
#450000000
1"
b00 $
b0000000000000010 '
1)
b00 +
b0000000000000010 .
b000111100000000 2
b000111100000000 3
16
08
b00 B
b0000000000000001 C
b0000000000000001 D
b0000000000000010 E
b0000000000000001 F
0K
0M
1Q
1W
b000111100000000 Y
1Z
1\
b000111100000000 ]
1`
0g
1j
0l
b00 v
b00 x
1/"
b00 1"
b00 2"
13"
05"
b0000000000000001 :"
b0000000000000001 ;"
b0000000000000001 <"
0D"
1L"
0N"
b0000000000000001 P"
b0000000000000001 Q"
1R"
1X"
1^"
1d"
1j"
1p"
1v"
b0000000000000001 |"
b0000000000000001 }"
b0000000000000010 "#
0$#
0'#
b00000000000000010 )#
b0000000000000010 *#
0,#
1/#
b0000001 0#
b0000000000000001 2#
14#
07#
1:#
1@#
0C#
#500000000
0"
0)
0Q
0W
0Z
0`
0/"
03"
0L"
0R"
0X"
0^"
0d"
0j"
0p"
0v"
0/#
04#
0:#
0@#
#550000000
1"
b01 $
b000111100000000 &
1)
b01 +
b000111100000000 -
b0000010 1
b000111100000000 4
15
06
b111 ;
b01 B
b0000000000000000 G
b0000000000000000 H
1Q
1S
b0000010 T
1W
1Z
0\
b000111100000000 ^
b000111100000000 _
1`
b000111100000000 b
b0000010 h
1i
0j
b111 o
b01 v
b01 x
b111 z
b0000000 }
b0000000 !"
1/"
b01 1"
b01 2"
13"
b111 8"
b0000000000000000 9"
1L"
b0000000000000000 O"
1R"
b0000000000000000 U"
1X"
b0000000000000000 ["
1^"
b0000000000000000 a"
1d"
b0000000000000000 g"
1j"
b0000000000000000 m"
1p"
b0000000000000000 s"
1v"
b0000000000000000 y"
1/#
14#
1:#
1@#
#600000000
0"
0)
0Q
0W
0Z
0`
0/"
03"
0L"
0R"
0X"
0^"
0d"
0j"
0p"
0v"
0/#
04#
0:#
0@#
#650000000
1"
b10 $
b0000010 %
1)
b10 +
b0000010 ,
b0000010 0
05
18
b10 B
1Q
0S
b0000010 U
b0000010 V
1W
b0000010 X
1Z
1`
b0000010 c
0i
1l
b10 v
b10 x
b00000011 -"
1/"
b10 1"
b10 2"
13"
15"
1K"
1L"
1R"
1X"
1^"
1d"
1j"
1p"
1v"
1x"
1/#
14#
1:#
1@#
#700000000
0"
0)
0Q
0W
0Z
0`
0/"
03"
0L"
0R"
0X"
0^"
0d"
0j"
0p"
0v"
0/#
04#
0:#
0@#
#750000000
1"
b00 $
1)
b00 +
b000111000000010 2
b000111000000010 3
16
08
b00 B
1Q
1W
b000111000000010 Y
1Z
1\
b000111000000010 ]
1`
1j
0l
b00 v
b00 x
1/"
b00 1"
b00 2"
13"
05"
0K"
1L"
1R"
1X"
1^"
1d"
1j"
1p"
1v"
0x"
1/#
14#
1:#
1@#
#800000000
0"
0)
0Q
0W
0Z
0`
0/"
03"
0L"
0R"
0X"
0^"
0d"
0j"
0p"
0v"
0/#
04#
0:#
0@#
#850000000
1"
b01 $
b000111000000010 &
1)
b01 +
b000111000000010 -
b0000011 1
b000111000000010 4
15
06
b110 ;
b01 B
b0000000000000010 G
b0000000000000010 H
1Q
1S
b0000011 T
1W
1Z
0\
b000111000000010 ^
b000111000000010 _
1`
b000111000000010 b
b0000011 h
1i
0j
b110 o
b01 v
b01 x
b110 z
b0000010 }
b0000010 !"
1/"
b01 1"
b01 2"
13"
b110 8"
b0000000000000010 9"
1L"
b0000000000000010 O"
1R"
b0000000000000010 U"
1X"
b0000000000000010 ["
1^"
b0000000000000010 a"
1d"
b0000000000000010 g"
1j"
b0000000000000010 m"
1p"
b0000000000000010 s"
1v"
b0000000000000010 y"
1/#
14#
1:#
1@#
#900000000
0"
0)
0Q
0W
0Z
0`
0/"
03"
0L"
0R"
0X"
0^"
0d"
0j"
0p"
0v"
0/#
04#
0:#
0@#
#950000000
1"
b10 $
b0000011 %
1)
b10 +
b0000011 ,
b0000011 0
05
18
b10 B
1Q
0S
b0000011 U
b0000011 V
1W
b0000011 X
1Z
1`
b0000011 c
0i
1l
b10 v
b10 x
b00000100 -"
1/"
b10 1"
b10 2"
13"
15"
1J"
1L"
1R"
1X"
1^"
1d"
1j"
1p"
1r"
1v"
1/#
14#
1:#
1@#
#1000000000
0"
0)
0Q
0W
0Z
0`
0/"
03"
0L"
0R"
0X"
0^"
0d"
0j"
0p"
0v"
0/#
04#
0:#
0@#
#1050000000
1"
b00 $
1)
b00 +
b000110100011111 2
b000110100011111 3
16
08
b00 B
1Q
1W
b000110100011111 Y
1Z
1\
b000110100011111 ]
1`
1j
0l
b00 v
b00 x
1/"
b00 1"
b00 2"
13"
05"
b0000000000000010 B"
0J"
1L"
1R"
1X"
1^"
1d"
1j"
1p"
0r"
b0000000000000010 t"
b0000000000000010 u"
1v"
1/#
14#
1:#
1@#
#1100000000
0"
0)
0Q
0W
0Z
0`
0/"
03"
0L"
0R"
0X"
0^"
0d"
0j"
0p"
0v"
0/#
04#
0:#
0@#
#1150000000
1"
b01 $
b000110100011111 &
b0000000000000001 '
1)
b01 +
b000110100011111 -
b0000000000000001 .
b0000100 1
b000110100011111 4
15
06
b101 ;
b111 =
b01 B
b0000000000000000 D
b0000000000000001 E
b0000000000000000 F
b0000000000011111 G
b1111111111111111 H
1Q
1S
b0000100 T
1W
1Z
0\
b000110100011111 ^
b000110100011111 _
1`
b000110100011111 b
b0000100 h
1i
0j
b101 o
b111 q
b01 v
b01 x
b101 z
b111 |
b0011111 }
b0011111 !"
1/"
b01 1"
b01 2"
13"
b111 7"
b101 8"
b0000000000011111 9"
b0000000000000000 ;"
1L"
b0000000000011111 O"
1R"
b0000000000011111 U"
1X"
b0000000000011111 ["
1^"
b0000000000011111 a"
1d"
b0000000000011111 g"
1j"
b0000000000011111 m"
1p"
b0000000000011111 s"
1v"
b0000000000011111 y"
b0000000000000000 }"
b0000000000000001 "#
b00000000000000001 )#
b0000000000000001 *#
1/#
b0000000000000000 2#
14#
1:#
1@#
#1200000000
0"
0)
0Q
0W
0Z
0`
0/"
03"
0L"
0R"
0X"
0^"
0d"
0j"
0p"
0v"
0/#
04#
0:#
0@#
#1250000000
1"
b10 $
b0000100 %
1)
b10 +
b0000100 ,
b0000100 0
05
18
b10 B
1Q
0S
b0000100 U
b0000100 V
1W
b0000100 X
1Z
1`
b0000100 c
0i
1l
b10 v
b10 x
b00000101 -"
1/"
b10 1"
b10 2"
13"
15"
1I"
1L"
1R"
1X"
1^"
1d"
1j"
1l"
1p"
1v"
1/#
14#
1:#
1@#
#1300000000
0"
0)
0Q
0W
0Z
0`
0/"
03"
0L"
0R"
0X"
0^"
0d"
0j"
0p"
0v"
0/#
04#
0:#
0@#
#1350000000
1"
b00 $
1)
b00 +
b011111011000000 2
b011111011000000 3
16
08
b00 B
1Q
1W
b011111011000000 Y
1Z
1\
b011111011000000 ]
1`
1j
0l
b00 v
b00 x
1/"
b00 1"
b00 2"
13"
05"
b0000000000011111 A"
0I"
1L"
1R"
1X"
1^"
1d"
1j"
0l"
b0000000000011111 n"
b0000000000011111 o"
1p"
1v"
1/#
14#
1:#
1@#
#1400000000
0"
0)
0Q
0W
0Z
0`
0/"
03"
0L"
0R"
0X"
0^"
0d"
0j"
0p"
0v"
0/#
04#
0:#
0@#
#1450000000
1"
b01 $
b011111011000000 &
b0000000000000100 '
1)
b01 +
b011111011000000 -
b0000000000000100 .
b0000101 1
b011111011000000 4
15
06
b110 ;
b110 <
b110 =
b00 ?
b01 B
b0000000000000010 C
b0000000000000010 D
b0000000000000100 E
b0000000000000010 F
b0000000000000100 G
b0000000000000000 H
1Q
1S
b0000101 T
1W
1Z
0\
b011111011000000 ^
b011111011000000 _
1`
b011111011000000 b
b0000101 h
1i
0j
b110 o
b110 p
b110 q
b00 s
b01 v
b01 x
b0111 y
b110 z
b110 {
b000 |
b1000000 }
b1000000 !"
0""
1)"
1/"
b01 1"
b01 2"
13"
b110 6"
b110 7"
b110 8"
b0000000000000100 9"
b0000000000000010 :"
b0000000000000010 ;"
1L"
b0000000000000100 O"
1R"
b0000000000000100 U"
1X"
b0000000000000100 ["
1^"
b0000000000000100 a"
1d"
b0000000000000100 g"
1j"
b0000000000000100 m"
1p"
b0000000000000100 s"
1v"
b0000000000000100 y"
b0000000000000010 |"
b0000000000000010 }"
b0000000000000100 "#
b00000000000000100 )#
b0000000000000100 *#
1/#
b0000010 0#
b0000000000000010 2#
14#
1:#
1@#
#1500000000
0"
0)
0Q
0W
0Z
0`
0/"
03"
0L"
0R"
0X"
0^"
0d"
0j"
0p"
0v"
0/#
04#
0:#
0@#
#1550000000
1"
b10 $
b0000101 %
1)
b10 +
b0000101 ,
b0000101 0
05
19
b10 B
1Q
0S
b0000101 U
b0000101 V
1W
b0000101 X
1Z
1`
b0000101 c
0i
1m
b10 v
b10 x
b00000110 -"
1/"
b10 1"
b10 2"
13"
1L"
1R"
1X"
1^"
1d"
1j"
1p"
1v"
1/#
11#
14#
1:#
1@#
#1600000000
0"
0)
0Q
0W
0Z
0`
0/"
03"
0L"
0R"
0X"
0^"
0d"
0j"
0p"
0v"
0/#
04#
0:#
0@#
#1650000000
1"
b00 $
1)
b00 +
b001011011000000 2
b001011011000000 3
16
09
b00 B
b0000000000000010 J
1Q
1W
b001011011000000 Y
1Z
1\
b001011011000000 ]
1`
1j
0m
b00 v
b00 x
1/"
b00 1"
b00 2"
13"
1L"
1R"
1X"
1^"
1d"
1j"
1p"
1v"
1/#
01#
b0000000000000010 3#
14#
1:#
1@#
#1700000000
0"
0)
0Q
0W
0Z
0`
0/"
03"
0L"
0R"
0X"
0^"
0d"
0j"
0p"
0v"
0/#
04#
0:#
0@#
#1750000000
1"
b01 $
b001011011000000 &
b0000000000000011 '
1)
b01 +
b001011011000000 -
b0000000000000011 .
b0000110 1
b001011011000000 4
15
06
b000 =
b01 B
b0000000000000001 D
b0000000000000011 E
b0000000000000001 F
b0000000000000011 G
1Q
1S
b0000110 T
1W
1Z
0\
b001011011000000 ^
b001011011000000 _
1`
b001011011000000 b
b0000110 h
1i
0j
b000 q
b01 v
b01 x
b0010 y
1#"
0)"
1/"
b01 1"
b01 2"
13"
b000 7"
b0000000000000011 9"
b0000000000000001 ;"
1L"
b0000000000000011 O"
1R"
b0000000000000011 U"
1X"
b0000000000000011 ["
1^"
b0000000000000011 a"
1d"
b0000000000000011 g"
1j"
b0000000000000011 m"
1p"
b0000000000000011 s"
1v"
b0000000000000011 y"
b0000000000000001 }"
b0000000000000011 "#
b00000000000000011 )#
b0000000000000011 *#
1/#
b0000000000000001 2#
14#
1:#
1@#
#1800000000
0"
0)
0Q
0W
0Z
0`
0/"
03"
0L"
0R"
0X"
0^"
0d"
0j"
0p"
0v"
0/#
04#
0:#
0@#
#1850000000
1"
b10 $
b0000110 %
1)
b10 +
b0000110 ,
b0000110 0
05
18
1:
b10 B
1Q
0S
b0000110 U
b0000110 V
1W
b0000110 X
1Z
1`
b0000110 c
0i
1l
1n
b10 v
b10 x
b00000111 -"
1/"
b10 1"
b10 2"
13"
15"
1J"
1L"
1R"
1X"
1^"
1d"
1j"
1p"
1r"
1v"
1/#
14#
16#
1:#
1<#
1@#
1B#
#1900000000
0"
0)
0Q
0W
0Z
0`
0/"
03"
0L"
0R"
0X"
0^"
0d"
0j"
0p"
0v"
0/#
04#
0:#
0@#
#1950000000
1"
b00 $
b0000000000000100 '
1)
b00 +
b0000000000000100 .
b100110100000100 2
b100110100000100 3
16
08
0:
b00 B
b0000000000000011 C
b0000000000000100 E
b0000000000000100 G
bUUUUUUUUUUUUUUUU J
1O
1Q
1W
b100110100000100 Y
1Z
1\
b100110100000100 ]
1`
1e
1j
0l
0n
b00 v
b00 x
1/"
b00 1"
b00 2"
13"
05"
b0000000000000100 9"
b0000000000000011 :"
b0000000000000011 B"
0J"
1L"
b0000000000000100 O"
1R"
b0000000000000100 U"
1X"
b0000000000000100 ["
1^"
b0000000000000100 a"
1d"
b0000000000000100 g"
1j"
b0000000000000100 m"
1p"
0r"
b0000000000000100 s"
b0000000000000011 t"
b0000000000000011 u"
1v"
b0000000000000100 y"
b0000000000000011 |"
b0000000000000100 "#
b00000000000000100 )#
b0000000000000100 *#
1/#
b0000011 0#
bUUUUUUUUUUUUUUUU 3#
14#
06#
1:#
0<#
1>#
1?#
1@#
0B#
#2000000000
0"
0)
0Q
0W
0Z
0`
0/"
03"
0L"
0R"
0X"
0^"
0d"
0j"
0p"
0v"
0/#
04#
0:#
0@#
#2050000000
1"
b01 $
b100110100000100 &
b0000000000011110 '
1)
b01 +
b100110100000100 -
b0000000000011110 .
b0000111 1
b100110100000100 4
15
06
b101 ;
b101 <
b001 =
1>
b01 @
1A
b01 B
b0000000000011111 C
b0000000000000000 D
b0000000000011110 E
b0000000000011110 G
b0000000000000100 H
0K
0M
1Q
1S
b0000111 T
1W
1Z
0\
b100110100000100 ^
b100110100000100 _
1`
b100110100000100 b
0g
b0000111 h
1i
0j
b101 o
b101 p
b001 q
1r
b01 t
1u
b01 v
b01 x
b1001 y
b101 z
b000 {
b001 |
b0000100 }
b0000100 !"
0#"
1+"
1/"
b01 1"
b01 2"
13"
b101 6"
b001 7"
b101 8"
b0000000000011110 9"
b0000000000011111 :"
b0000000000000000 ;"
1L"
b0000000000011110 O"
1R"
b0000000000011110 U"
1X"
b0000000000011110 ["
1^"
b0000000000011110 a"
1d"
b0000000000011110 g"
1j"
b0000000000011110 m"
1p"
b0000000000011110 s"
1v"
b0000000000011110 y"
b0000000000011111 |"
b01 !#
b0000000000011110 "#
0$#
0'#
b00000000000011110 )#
b0000000000011110 *#
0,#
1/#
b0011111 0#
b0000000000000000 2#
14#
07#
1:#
1@#
0C#
#2100000000
0"
0)
0Q
0W
0Z
0`
0/"
03"
0L"
0R"
0X"
0^"
0d"
0j"
0p"
0v"
0/#
04#
0:#
0@#
#2150000000
1"
b10 $
b0000111 %
1)
b10 +
b0000111 ,
b0000111 0
b0000011 1
18
1:
b10 B
1Q
b0000011 T
b0000111 U
b0000111 V
1W
b0000111 X
1Z
1`
b0000111 c
b0000011 h
1l
1n
b10 v
b10 x
b00001000 -"
1/"
b10 1"
b10 2"
13"
15"
1I"
1L"
1R"
1X"
1^"
1d"
1j"
1l"
1p"
1v"
1/#
14#
16#
1:#
1<#
1@#
1B#
#2200000000
0"
0)
0Q
0W
0Z
0`
0/"
03"
0L"
0R"
0X"
0^"
0d"
0j"
0p"
0v"
0/#
04#
0:#
0@#
#2250000000
1"
b00 $
b0000011 %
b0000000000011101 '
1)
b00 +
b0000011 ,
b0000000000011101 .
b0000011 0
b000111000000100 2
b000000000000000 3
05
16
17
08
0:
b00 B
b0000000000011110 C
b0000000000011101 E
b0000000000011101 G
1Q
0S
b0000011 U
b0000011 V
1W
b0000011 X
b000111000000100 Y
1Z
1\
b000000000000000 ]
1`
b0000011 c
0i
1j
1k
0l
0n
b00 v
b00 x
b00000100 -"
1/"
b00 1"
b00 2"
13"
05"
b0000000000011101 9"
b0000000000011110 :"
b0000000000011110 A"
0I"
1L"
b0000000000011101 O"
1R"
b0000000000011101 U"
1X"
b0000000000011101 ["
1^"
b0000000000011101 a"
1d"
b0000000000011101 g"
1j"
0l"
b0000000000011101 m"
b0000000000011110 n"
b0000000000011110 o"
1p"
b0000000000011101 s"
1v"
b0000000000011101 y"
b0000000000011110 |"
b0000000000011101 "#
b00000000000011101 )#
b0000000000011101 *#
1/#
b0011110 0#
14#
06#
1:#
0<#
1@#
0B#
#2300000000
0"
0)
0Q
0W
0Z
0`
0/"
03"
0L"
0R"
0X"
0^"
0d"
0j"
0p"
0v"
0/#
04#
0:#
0@#
